%YAML 1.1
%TAG !u! tag:unity3d.com,2011:
--- !u!114 &11400000
MonoBehaviour:
  m_ObjectHideFlags: 0
  m_CorrespondingSourceObject: {fileID: 0}
  m_PrefabInstance: {fileID: 0}
  m_PrefabAsset: {fileID: 0}
  m_GameObject: {fileID: 0}
  m_Enabled: 1
  m_EditorHideFlags: 0
  m_Script: {fileID: 11500000, guid: 7215abb204308404280e004903d4fe47, type: 3}
  m_Name: Constants
  m_EditorClassIdentifier: 
  <MaxFPS>k__BackingField: 120
  <FirstLevelID>k__BackingField: 1
